<svg width="30" height="30" viewBox="0 0 30 30" fill="none" xmlns="http://www.w3.org/2000/svg">
<path fill-rule="evenodd" clip-rule="evenodd" d="M7.36084 12.5L14.8625 4.99834L22.3642 12.5H22.3625V25H7.36252V12.5H7.36084ZM4.86252 14.9983L3.0165 16.8443L1.25 15.0778L13.0962 3.23161C14.0717 2.25613 15.6533 2.25613 16.6288 3.23161L28.475 15.0778L26.7085 16.8443L24.8625 14.9984V25C24.8625 26.3807 23.7432 27.5 22.3625 27.5H7.36252C5.98181 27.5 4.86252 26.3807 4.86252 25V14.9983Z" fill="#FCA500"/>
</svg>
