<svg width="21" height="22" viewBox="0 0 21 22" fill="none" xmlns="http://www.w3.org/2000/svg">
<path fill-rule="evenodd" clip-rule="evenodd" d="M12.623 15.1686C11.4601 16.0084 10.0505 16.5 8.53125 16.5C4.54444 16.5 1.3125 13.1142 1.3125 8.9375C1.3125 4.76085 4.54444 1.375 8.53125 1.375C12.5181 1.375 15.75 4.76085 15.75 8.9375C15.75 10.5291 15.2807 12.0058 14.4792 13.2241L19.3031 18.2777L17.4469 20.2223L12.623 15.1686ZM8.53125 13.75C11.0683 13.75 13.125 11.5954 13.125 8.9375C13.125 6.27963 11.0683 4.125 8.53125 4.125C5.99419 4.125 3.9375 6.27963 3.9375 8.9375C3.9375 11.5954 5.99419 13.75 8.53125 13.75Z" fill="#E1E1E1"/>
</svg>
